*** Life<ConwayCell> 49x29 ***

Generation = 0, Population = 17.
.*....*......................
.............................
..........................*..
.............................
.............................
.................*..........*
...........*.................
.............................
.............*...............
.............................
.............................
.........*...................
.............................
.............................
.................*...........
.............................
.............................
..............*..............
.......*.....................
.............................
.............................
.............................
.............................
.............................
.............................
.............................
.....................*.......
.............................
.............................
.............................
.............................
..............*..............
.............................
.............................
........*......*.............
.............................
......................*......
.............................
.............................
.............................
.............................
.............................
.......................*.....
.............................
.............................
.............................
.............................
.............................
.............................

Generation = 61, Population = 0.
.............................
.............................
.............................
.............................
.............................
.............................
.............................
.............................
.............................
.............................
.............................
.............................
.............................
.............................
.............................
.............................
.............................
.............................
.............................
.............................
.............................
.............................
.............................
.............................
.............................
.............................
.............................
.............................
.............................
.............................
.............................
.............................
.............................
.............................
.............................
.............................
.............................
.............................
.............................
.............................
.............................
.............................
.............................
.............................
.............................
.............................
.............................
.............................
.............................

Generation = 122, Population = 0.
.............................
.............................
.............................
.............................
.............................
.............................
.............................
.............................
.............................
.............................
.............................
.............................
.............................
.............................
.............................
.............................
.............................
.............................
.............................
.............................
.............................
.............................
.............................
.............................
.............................
.............................
.............................
.............................
.............................
.............................
.............................
.............................
.............................
.............................
.............................
.............................
.............................
.............................
.............................
.............................
.............................
.............................
.............................
.............................
.............................
.............................
.............................
.............................
.............................

*** Life<ConwayCell> 4x31 ***

Generation = 0, Population = 26.
...*.....*......**...........*.
**......*.*.*...............*.*
*......**..*..*......*.*..*..*.
.*.......*....*.*...*..........

Generation = 46, Population = 11.
.............................*.
**.....*....................*.*
**.....*.....................*.
.......*.......................

*** Life<ConwayCell> 11x29 ***

Generation = 0, Population = 15.
.................*..*........
*..............*.............
...............**..........*.
.*...*.......................
.............................
.........*..................*
..................*..........
........*...........*........
.............................
.............................
........................*....

Generation = 102, Population = 4.
.............................
...............**............
...............**............
.............................
.............................
.............................
.............................
.............................
.............................
.............................
.............................

*** Life<ConwayCell> 36x37 ***

Generation = 0, Population = 25.
....*................................
.....................................
.....................................
.............................*.......
.....................................
...................*.............*...
........................*............
......*..............................
.....................................
.....................................
........*.......................*....
.....................................
.....................................
.....................................
...*.................................
.....................................
....*.......................*........
............................*........
.....................................
.....................................
.....................................
.....................................
.....................................
.........*...................*.......
.....................................
....*................................
.....................................
....*................................
.....................................
...........................*.........
......................*..............
............................*........
......*..............................
....*...............*.........*......
..................................*..
...........*.........................

Generation = 35, Population = 0.
.....................................
.....................................
.....................................
.....................................
.....................................
.....................................
.....................................
.....................................
.....................................
.....................................
.....................................
.....................................
.....................................
.....................................
.....................................
.....................................
.....................................
.....................................
.....................................
.....................................
.....................................
.....................................
.....................................
.....................................
.....................................
.....................................
.....................................
.....................................
.....................................
.....................................
.....................................
.....................................
.....................................
.....................................
.....................................
.....................................

Generation = 70, Population = 0.
.....................................
.....................................
.....................................
.....................................
.....................................
.....................................
.....................................
.....................................
.....................................
.....................................
.....................................
.....................................
.....................................
.....................................
.....................................
.....................................
.....................................
.....................................
.....................................
.....................................
.....................................
.....................................
.....................................
.....................................
.....................................
.....................................
.....................................
.....................................
.....................................
.....................................
.....................................
.....................................
.....................................
.....................................
.....................................
.....................................

Generation = 105, Population = 0.
.....................................
.....................................
.....................................
.....................................
.....................................
.....................................
.....................................
.....................................
.....................................
.....................................
.....................................
.....................................
.....................................
.....................................
.....................................
.....................................
.....................................
.....................................
.....................................
.....................................
.....................................
.....................................
.....................................
.....................................
.....................................
.....................................
.....................................
.....................................
.....................................
.....................................
.....................................
.....................................
.....................................
.....................................
.....................................
.....................................

Generation = 140, Population = 0.
.....................................
.....................................
.....................................
.....................................
.....................................
.....................................
.....................................
.....................................
.....................................
.....................................
.....................................
.....................................
.....................................
.....................................
.....................................
.....................................
.....................................
.....................................
.....................................
.....................................
.....................................
.....................................
.....................................
.....................................
.....................................
.....................................
.....................................
.....................................
.....................................
.....................................
.....................................
.....................................
.....................................
.....................................
.....................................
.....................................

Generation = 175, Population = 0.
.....................................
.....................................
.....................................
.....................................
.....................................
.....................................
.....................................
.....................................
.....................................
.....................................
.....................................
.....................................
.....................................
.....................................
.....................................
.....................................
.....................................
.....................................
.....................................
.....................................
.....................................
.....................................
.....................................
.....................................
.....................................
.....................................
.....................................
.....................................
.....................................
.....................................
.....................................
.....................................
.....................................
.....................................
.....................................
.....................................

*** Life<ConwayCell> 4x19 ***

Generation = 0, Population = 22.
.....*...***.*.....
..*........**..**..
***...*........*...
*..**......**.*.*..

Generation = 28, Population = 3.
...................
...................
..............***..
...................

Generation = 56, Population = 3.
...................
...................
..............***..
...................

Generation = 84, Population = 3.
...................
...................
..............***..
...................

Generation = 112, Population = 3.
...................
...................
..............***..
...................

Generation = 140, Population = 3.
...................
...................
..............***..
...................

*** Life<ConwayCell> 41x32 ***

Generation = 0, Population = 19.
................................
................................
................................
................................
................................
................................
............*...................
................................
.................*..............
................................
.......................*........
................................
................................
.....*..............*..*........
................*...............
................*...............
................................
................................
................................
................................
................................
................................
...................*............
................................
................................
.......................*........
....................*...........
................................
..............................*.
................................
*...*...........................
................................
.*......*.......................
................................
................................
.................*..............
................................
.....*.......................*..
................................
................................
................................

Generation = 74, Population = 0.
................................
................................
................................
................................
................................
................................
................................
................................
................................
................................
................................
................................
................................
................................
................................
................................
................................
................................
................................
................................
................................
................................
................................
................................
................................
................................
................................
................................
................................
................................
................................
................................
................................
................................
................................
................................
................................
................................
................................
................................
................................

*** Life<ConwayCell> 26x23 ***

Generation = 0, Population = 22.
....*..................
.......................
.......**..............
.......................
.*...............*....*
*............*.........
......*................
...*...................
.......*...............
.*......*............*.
...................*...
.......................
.......................
.......................
.................*.....
.....*.................
.......................
.*.....................
................*......
.......................
.......................
.......................
.......................
.............*.........
.......................
.*...................*.

Generation = 163, Population = 0.
.......................
.......................
.......................
.......................
.......................
.......................
.......................
.......................
.......................
.......................
.......................
.......................
.......................
.......................
.......................
.......................
.......................
.......................
.......................
.......................
.......................
.......................
.......................
.......................
.......................
.......................

*** Life<ConwayCell> 30x43 ***

Generation = 0, Population = 16.
...........................................
...........................................
.......................*...................
.....*....*................................
...........................................
..*........................................
...........................................
...........................................
..................................*........
...........................................
............................*..............
...........................................
...........................................
.*.........................................
...........................................
.........*......................*..........
...........................................
...........................................
...........................................
.......................................*...
....................*......................
...........................................
...........................*..........*....
...........................................
...........................................
...........................................
...........................................
..................*..................*.....
...........................................
..........................................*

Generation = 32, Population = 0.
...........................................
...........................................
...........................................
...........................................
...........................................
...........................................
...........................................
...........................................
...........................................
...........................................
...........................................
...........................................
...........................................
...........................................
...........................................
...........................................
...........................................
...........................................
...........................................
...........................................
...........................................
...........................................
...........................................
...........................................
...........................................
...........................................
...........................................
...........................................
...........................................
...........................................

Generation = 64, Population = 0.
...........................................
...........................................
...........................................
...........................................
...........................................
...........................................
...........................................
...........................................
...........................................
...........................................
...........................................
...........................................
...........................................
...........................................
...........................................
...........................................
...........................................
...........................................
...........................................
...........................................
...........................................
...........................................
...........................................
...........................................
...........................................
...........................................
...........................................
...........................................
...........................................
...........................................

Generation = 96, Population = 0.
...........................................
...........................................
...........................................
...........................................
...........................................
...........................................
...........................................
...........................................
...........................................
...........................................
...........................................
...........................................
...........................................
...........................................
...........................................
...........................................
...........................................
...........................................
...........................................
...........................................
...........................................
...........................................
...........................................
...........................................
...........................................
...........................................
...........................................
...........................................
...........................................
...........................................

Generation = 128, Population = 0.
...........................................
...........................................
...........................................
...........................................
...........................................
...........................................
...........................................
...........................................
...........................................
...........................................
...........................................
...........................................
...........................................
...........................................
...........................................
...........................................
...........................................
...........................................
...........................................
...........................................
...........................................
...........................................
...........................................
...........................................
...........................................
...........................................
...........................................
...........................................
...........................................
...........................................

*** Life<ConwayCell> 36x20 ***

Generation = 0, Population = 15.
....................
....................
....................
....................
....*...............
....................
....................
....................
*...................
..*...*.............
....................
............*.......
....................
....................
....................
....................
....................
.......*......*.....
....................
*...................
.......*............
...*................
....................
....................
........*...........
...*................
....................
....................
....................
...........*........
....................
....................
....................
....*...............
..............*.....
....................

Generation = 17, Population = 0.
....................
....................
....................
....................
....................
....................
....................
....................
....................
....................
....................
....................
....................
....................
....................
....................
....................
....................
....................
....................
....................
....................
....................
....................
....................
....................
....................
....................
....................
....................
....................
....................
....................
....................
....................
....................

Generation = 34, Population = 0.
....................
....................
....................
....................
....................
....................
....................
....................
....................
....................
....................
....................
....................
....................
....................
....................
....................
....................
....................
....................
....................
....................
....................
....................
....................
....................
....................
....................
....................
....................
....................
....................
....................
....................
....................
....................

Generation = 51, Population = 0.
....................
....................
....................
....................
....................
....................
....................
....................
....................
....................
....................
....................
....................
....................
....................
....................
....................
....................
....................
....................
....................
....................
....................
....................
....................
....................
....................
....................
....................
....................
....................
....................
....................
....................
....................
....................

Generation = 68, Population = 0.
....................
....................
....................
....................
....................
....................
....................
....................
....................
....................
....................
....................
....................
....................
....................
....................
....................
....................
....................
....................
....................
....................
....................
....................
....................
....................
....................
....................
....................
....................
....................
....................
....................
....................
....................
....................

Generation = 85, Population = 0.
....................
....................
....................
....................
....................
....................
....................
....................
....................
....................
....................
....................
....................
....................
....................
....................
....................
....................
....................
....................
....................
....................
....................
....................
....................
....................
....................
....................
....................
....................
....................
....................
....................
....................
....................
....................

Generation = 102, Population = 0.
....................
....................
....................
....................
....................
....................
....................
....................
....................
....................
....................
....................
....................
....................
....................
....................
....................
....................
....................
....................
....................
....................
....................
....................
....................
....................
....................
....................
....................
....................
....................
....................
....................
....................
....................
....................

*** Life<ConwayCell> 21x42 ***

Generation = 0, Population = 17.
..........................................
.......................................*..
..........................................
....................................*.....
..........................................
............................*.............
..........................................
............*.............................
..........................................
..........................................
............*....*........................
..........................................
..........................................
..........................................
..*..............*........................
...*......................................
.....*..............*.....................
.............*............................
...........*...*..........................
.............*.....................*......
........................................*.

Generation = 139, Population = 0.
..........................................
..........................................
..........................................
..........................................
..........................................
..........................................
..........................................
..........................................
..........................................
..........................................
..........................................
..........................................
..........................................
..........................................
..........................................
..........................................
..........................................
..........................................
..........................................
..........................................
..........................................

*** Life<ConwayCell> 20x40 ***

Generation = 0, Population = 27.
........................................
...........*..*.........................
............*.......*.......*.*.........
..................................*.....
............................*...........
.........*......*..*....................
........................*...............
........................................
.....................*..................
........................................
........................................
........................................
....................*.....*........*....
...*....*..........*.....*..............
......................................*.
.............*..........................
......................*.................
.............*..........................
........................*...........*...
...................................*....

Generation = 42, Population = 0.
........................................
........................................
........................................
........................................
........................................
........................................
........................................
........................................
........................................
........................................
........................................
........................................
........................................
........................................
........................................
........................................
........................................
........................................
........................................
........................................

Generation = 84, Population = 0.
........................................
........................................
........................................
........................................
........................................
........................................
........................................
........................................
........................................
........................................
........................................
........................................
........................................
........................................
........................................
........................................
........................................
........................................
........................................
........................................

*** Life<ConwayCell> 15x42 ***

Generation = 0, Population = 17.
....................................*.....
................*....................*....
.............*....*.......................
......................................*...
........................*.................
...............................*..........
......*....*.........*........*...........
..........................................
..........................................
.*........................................
........*.....*...........................
..*..................*....................
..........................................
..........................................
..........................................

Generation = 41, Population = 0.
..........................................
..........................................
..........................................
..........................................
..........................................
..........................................
..........................................
..........................................
..........................................
..........................................
..........................................
..........................................
..........................................
..........................................
..........................................

*** Life<ConwayCell> 49x25 ***

Generation = 0, Population = 28.
.......*.................
.........................
.........................
.........................
......................*..
.....................*...
............*............
.........................
.........................
.........................
.......................*.
.....*..*................
.........................
.........................
...*.....................
....................*....
........*................
.........................
*........................
..............*..........
.........................
.....................*...
.........................
.........................
....*....................
.........................
.......*...........*.....
.........................
.........................
.........................
................*........
.........................
.........................
.........................
.....................*...
...........*.............
..................*.*....
.......*...........*.....
.........................
.........................
.........................
.........................
.......*.................
.......................*.
......................*..
.......................*.
.........................
........*................
.........................

Generation = 183, Population = 0.
.........................
.........................
.........................
.........................
.........................
.........................
.........................
.........................
.........................
.........................
.........................
.........................
.........................
.........................
.........................
.........................
.........................
.........................
.........................
.........................
.........................
.........................
.........................
.........................
.........................
.........................
.........................
.........................
.........................
.........................
.........................
.........................
.........................
.........................
.........................
.........................
.........................
.........................
.........................
.........................
.........................
.........................
.........................
.........................
.........................
.........................
.........................
.........................
.........................

*** Life<ConwayCell> 45x2 ***

Generation = 0, Population = 25.
..
..
.*
*.
..
..
.*
..
*.
*.
..
.*
*.
.*
.*
..
.*
*.
**
..
..
.*
..
.*
.*
..
..
..
..
..
*.
**
..
.*
**
..
..
*.
.*
..
..
.*
..
..
..

Generation = 11, Population = 8.
..
..
..
..
..
..
..
..
..
..
..
..
**
**
..
..
..
**
**
..
..
..
..
..
..
..
..
..
..
..
..
..
..
..
..
..
..
..
..
..
..
..
..
..
..

*** Life<ConwayCell> 12x35 ***

Generation = 0, Population = 21.
...................................
.......................**..........
...................................
*........................*.......*.
...*...............................
.....................*............*
....*..*........*..................
*..................................
*...*...............*..*...*.......
...........**......................
........................*..........
.....*.............................

Generation = 44, Population = 0.
...................................
...................................
...................................
...................................
...................................
...................................
...................................
...................................
...................................
...................................
...................................
...................................

Generation = 88, Population = 0.
...................................
...................................
...................................
...................................
...................................
...................................
...................................
...................................
...................................
...................................
...................................
...................................

Generation = 132, Population = 0.
...................................
...................................
...................................
...................................
...................................
...................................
...................................
...................................
...................................
...................................
...................................
...................................

*** Life<ConwayCell> 25x9 ***

Generation = 0, Population = 21.
.....*...
.*......*
.........
.......*.
.........
.........
.....*...
..*......
.........
....*....
...*.....
.*....**.
.........
.........
*........
..*......
.........
.........
.......*.
.........
**.*...*.
.......*.
...*.....
.*.......
.........

Generation = 31, Population = 0.
.........
.........
.........
.........
.........
.........
.........
.........
.........
.........
.........
.........
.........
.........
.........
.........
.........
.........
.........
.........
.........
.........
.........
.........
.........

*** Life<ConwayCell> 18x46 ***

Generation = 0, Population = 24.
..*.......................................*...
.............................*..........*.....
..............................................
......................................*.......
..............................................
........*........................*...........*
...*..........................................
.......*...*................*.................
..............................................
.......*.................*....................
............................................*.
............*.......................*.........
..................................*...........
.......*......................................
..............................................
.........................*...*................
..............................................
............*.......*................*........

Generation = 29, Population = 0.
..............................................
..............................................
..............................................
..............................................
..............................................
..............................................
..............................................
..............................................
..............................................
..............................................
..............................................
..............................................
..............................................
..............................................
..............................................
..............................................
..............................................
..............................................

*** Life<ConwayCell> 33x12 ***

Generation = 0, Population = 21.
.*..........
....*.......
............
............
............
............
...*..*.....
............
............
.......*....
............
*...........
............
............
............
*.......*.*.
............
............
....*.*.....
....*.......
............
............
.*..........
............
.....*...*..
............
............
............
..*.........
............
.....*...*..
......*...*.
....*.......

Generation = 71, Population = 0.
............
............
............
............
............
............
............
............
............
............
............
............
............
............
............
............
............
............
............
............
............
............
............
............
............
............
............
............
............
............
............
............
............

*** Life<ConwayCell> 33x10 ***

Generation = 0, Population = 22.
..........
..........
.....*....
.*........
..........
..........
.......*..
..........
..........
..........
..........
..........
..........
.*........
.*......*.
..........
..........
..........
......*.*.
.*..*.*...
........*.
........*.
*.........
..........
*.........
..........
..........
........*.
.*....*.*.
..*.......
*....*....
..........
..........

Generation = 30, Population = 0.
..........
..........
..........
..........
..........
..........
..........
..........
..........
..........
..........
..........
..........
..........
..........
..........
..........
..........
..........
..........
..........
..........
..........
..........
..........
..........
..........
..........
..........
..........
..........
..........
..........

*** Life<ConwayCell> 19x37 ***

Generation = 0, Population = 25.
..................*...........*......
.....................................
.......................*.....*.......
...*.................................
.............*.......................
.....................................
.....................................
........*...............*............
.....................................
....*....*......................**...
.....................................
.................*...................
.........*...........................
.......*..................*....*.....
....................................*
*....................*...............
............*...............*........
*....................................
............................*......*.

Generation = 151, Population = 0.
.....................................
.....................................
.....................................
.....................................
.....................................
.....................................
.....................................
.....................................
.....................................
.....................................
.....................................
.....................................
.....................................
.....................................
.....................................
.....................................
.....................................
.....................................
.....................................

*** Life<ConwayCell> 34x15 ***

Generation = 0, Population = 15.
...............
...............
...............
....*...*......
...............
...............
...........*...
..............*
...............
...............
.............*.
.....*.........
...............
.........*.....
...............
...*...........
...............
...............
...............
........*......
...............
...............
...............
...............
...............
...............
*...........*.*
...........*...
........*......
...............
...............
...............
...............
..............*

Generation = 34, Population = 0.
...............
...............
...............
...............
...............
...............
...............
...............
...............
...............
...............
...............
...............
...............
...............
...............
...............
...............
...............
...............
...............
...............
...............
...............
...............
...............
...............
...............
...............
...............
...............
...............
...............
...............

Generation = 68, Population = 0.
...............
...............
...............
...............
...............
...............
...............
...............
...............
...............
...............
...............
...............
...............
...............
...............
...............
...............
...............
...............
...............
...............
...............
...............
...............
...............
...............
...............
...............
...............
...............
...............
...............
...............

Generation = 102, Population = 0.
...............
...............
...............
...............
...............
...............
...............
...............
...............
...............
...............
...............
...............
...............
...............
...............
...............
...............
...............
...............
...............
...............
...............
...............
...............
...............
...............
...............
...............
...............
...............
...............
...............
...............

Generation = 136, Population = 0.
...............
...............
...............
...............
...............
...............
...............
...............
...............
...............
...............
...............
...............
...............
...............
...............
...............
...............
...............
...............
...............
...............
...............
...............
...............
...............
...............
...............
...............
...............
...............
...............
...............
...............
