30

7 9
19
5 6
6 2
4 1
1 7
0 0
2 1
4 0
2 4
2 5
0 7
3 3
4 7
6 2
3 0
3 4
3 4
6 4
3 2
2 1
1 3

8 8
1
0 4
13 11

8 7
9
4 0
3 3
2 2
2 6
5 5
2 0
1 1
6 0
1 0
6 15

7 10
1
1 1
3 8

12 12
4
9 7
8 11
7 4
4 5
4 2

7 11
24
5 10
5 10
0 6
3 5
2 10
1 10
3 2
4 7
5 5
5 8
2 6
0 8
3 10
6 10
3 9
0 6
2 3
4 1
3 8
3 7
4 5
5 5
4 1
4 2
12 16

10 11
1
0 9
15 9

11 9
12
0 3
8 1
9 0
5 2
8 4
8 2
0 0
1 8
1 1
9 4
2 2
3 8
12 14

11 9
19
8 4
0 5
7 0
8 6
0 1
10 4
1 0
2 5
8 8
2 4
10 5
10 0
1 7
0 8
8 3
3 3
1 8
0 0
1 5
13 18

9 11
12
5 0
1 10
6 1
8 5
2 4
7 10
4 6
0 6
0 4
8 2
6 2
3 2
6 18

7 10
15
5 7
4 3
1 8
4 3
5 3
3 0
1 8
5 9
1 1
1 6
4 0
2 7
6 5
1 2
4 3
7 5

11 9
2
1 3
6 0
4 5

9 11
2
0 10
8 1
7 12

8 7
11
2 4
4 1
4 4
6 6
5 5
2 1
6 2
4 0
6 3
1 0
4 3
3 5

10 11
2
6 9
6 6
11 13

11 8
8
3 5
4 0
10 5
2 3
9 2
8 4
2 0
10 6
3 3

10 7
23
5 2
4 4
1 3
2 0
6 2
0 0
3 2
0 3
9 0
6 1
0 2
0 4
5 3
7 0
8 3
7 4
0 4
8 6
7 2
5 6
5 1
3 1
6 1
11 9

11 8
7
5 4
8 0
4 2
10 5
1 4
0 5
2 5
3 4

10 9
1
0 5
15 11

10 11
19
4 3
9 9
1 8
1 0
4 5
6 6
7 9
8 6
8 8
9 10
6 3
1 10
8 8
7 2
9 7
1 3
7 7
7 1
7 5
16 15

7 8
21
5 1
1 1
2 5
0 4
0 4
1 4
4 7
2 4
1 0
0 6
1 7
5 6
1 0
0 5
4 2
0 1
0 4
1 4
4 1
5 2
0 0
11 17

12 8
15
1 3
3 6
1 1
8 0
10 2
9 7
1 2
0 4
5 3
11 1
1 5
2 6
8 6
0 5
4 4
3 17

7 12
9
2 8
1 2
6 9
5 5
2 0
5 7
2 0
2 4
0 8
12 1

9 7
17
7 1
0 1
0 3
5 6
5 3
6 0
1 0
4 3
6 1
4 6
3 6
4 5
1 2
7 4
4 4
3 1
2 6
5 12

9 10
24
1 9
3 2
6 0
3 5
3 9
2 8
6 2
5 2
8 5
0 1
3 7
4 6
7 3
8 2
4 7
5 0
5 1
3 6
0 8
3 1
4 7
7 0
5 2
0 1
6 16

10 8
2
0 1
2 1
18 6

7 9
3
3 2
4 3
0 1
4 19

7 11
24
5 3
5 7
2 3
3 8
6 1
6 5
0 4
0 3
6 7
5 9
6 3
2 10
6 10
4 6
0 7
1 1
4 6
5 10
4 8
6 9
0 9
6 2
5 2
4 1
16 15

9 8
3
1 1
4 5
2 1
12 10

8 7
9
5 1
2 1
0 5
5 2
0 5
6 0
3 5
3 1
1 4
1 12
