*** Life<ConwayCell> 15x9 ***

Generation = 0, Population = 10.
.........
....**...
.........
.........
.*..*....
.........
.........
......*..
.*.....*.
.........
.........
.....*...
......*..
.........
......*..

Generation = 8, Population = 0.
.........
.........
.........
.........
.........
.........
.........
.........
.........
.........
.........
.........
.........
.........
.........

*** Life<ConwayCell> 11x6 ***

Generation = 0, Population = 13.
...*..
..*..*
....**
...*.*
*.....
.....*
....*.
......
*....*
......
.*....

Generation = 2, Population = 2.
......
......
.....*
.....*
......
......
......
......
......
......
......

Generation = 4, Population = 0.
......
......
......
......
......
......
......
......
......
......
......

Generation = 6, Population = 0.
......
......
......
......
......
......
......
......
......
......
......

Generation = 8, Population = 0.
......
......
......
......
......
......
......
......
......
......
......

*** Life<ConwayCell> 16x19 ***

Generation = 0, Population = 5.
..............*....
...................
...................
...................
...*...............
...................
................*..
..................*
...................
...................
......*............
...................
...................
...................
...................
...................

*** Life<ConwayCell> 13x15 ***

Generation = 0, Population = 12.
...............
*..............
...............
.....*.........
*.....*......*.
.....*......*..
...............
......*........
*..............
...............
..............*
..........*.*..
...............

Generation = 8, Population = 0.
...............
...............
...............
...............
...............
...............
...............
...............
...............
...............
...............
...............
...............

Generation = 16, Population = 0.
...............
...............
...............
...............
...............
...............
...............
...............
...............
...............
...............
...............
...............

*** Life<ConwayCell> 7x7 ***

Generation = 0, Population = 9.
..*.*..
.*..*..
....*.*
.....*.
...*...
...*...
.......

*** Life<ConwayCell> 20x7 ***

Generation = 0, Population = 5.
.......
.*.....
.......
.......
.......
.......
.......
.......
.*.....
.......
.......
.......
.......
.......
.......
.....*.
.......
.......
*...*..
.......

Generation = 10, Population = 0.
.......
.......
.......
.......
.......
.......
.......
.......
.......
.......
.......
.......
.......
.......
.......
.......
.......
.......
.......
.......

*** Life<ConwayCell> 12x7 ***

Generation = 0, Population = 19.
*...*..
*.*..**
.....**
**..*..
.......
.......
......*
.......
*......
.*.*...
..*.*.*
......*

Generation = 1, Population = 16.
.*...*.
.*..*.*
*...*.*
.....*.
.......
.......
.......
.......
.......
.***...
..**.*.
.....*.

Generation = 2, Population = 15.
.....*.
**..*.*
....*.*
.....*.
.......
.......
.......
.......
..*....
.*.**..
.*.*...
....*..

Generation = 3, Population = 12.
.....*.
....*.*
....*.*
.....*.
.......
.......
.......
.......
..**...
.*.**..
...*...
.......

Generation = 4, Population = 13.
.....*.
....*.*
....*.*
.....*.
.......
.......
.......
.......
..***..
....*..
..***..
.......

Generation = 5, Population = 13.
.....*.
....*.*
....*.*
.....*.
.......
.......
.......
...*...
...**..
.....*.
...**..
...*...

Generation = 6, Population = 15.
.....*.
....*.*
....*.*
.....*.
.......
.......
.......
...**..
...**..
.....*.
...**..
...**..

Generation = 7, Population = 15.
.....*.
....*.*
....*.*
.....*.
.......
.......
.......
...**..
...*.*.
.....*.
...*.*.
...**..

Generation = 8, Population = 16.
.....*.
....*.*
....*.*
.....*.
.......
.......
.......
...**..
...*.*.
.....**
...*.*.
...**..

Generation = 9, Population = 18.
.....*.
....*.*
....*.*
.....*.
.......
.......
.......
...**..
...*.**
.....**
...*.**
...**..

Generation = 10, Population = 16.
.....*.
....*.*
....*.*
.....*.
.......
.......
.......
...***.
...*..*
.......
...*..*
...***.

Generation = 11, Population = 17.
.....*.
....*.*
....*.*
.....*.
.......
.......
....*..
...***.
...*.*.
.......
...*.*.
...***.

Generation = 12, Population = 17.
.....*.
....*.*
....*.*
.....*.
.......
.......
...***.
...*.*.
...*.*.
.......
...*.*.
...*.*.

*** Life<ConwayCell> 6x14 ***

Generation = 0, Population = 13.
...*.*........
...*......**..
...**.....*...
.....*........
......*...*...
..*..........*

Generation = 8, Population = 21.
..............
..***.....**..
.*.***....**..
.**...*.......
..***.*.......
...***........

*** Life<ConwayCell> 17x7 ***

Generation = 0, Population = 16.
.......
.......
.......
..*.*..
.......
.......
.......
..*....
.....**
....*..
*...*..
.......
**.....
..*.*.*
.......
.*...*.
......*

*** Life<ConwayCell> 17x5 ***

Generation = 0, Population = 11.
.....
*....
.....
..*..
..*..
.....
*..*.
..*..
*....
*....
...*.
..*.*
.....
.....
.....
.....
.....

*** Life<ConwayCell> 6x16 ***

Generation = 0, Population = 14.
.............*.*
..*..*..*...*...
..*......*......
..*...........*.
.*........*..**.
................

Generation = 7, Population = 4.
................
................
................
.............**.
.............**.
................

Generation = 14, Population = 4.
................
................
................
.............**.
.............**.
................

*** Life<ConwayCell> 12x17 ***

Generation = 0, Population = 9.
.................
..............*..
.................
.................
.....*........*..
*.....*.......*..
..*..............
............*....
....*............
.................
.................
.................

Generation = 1, Population = 0.
.................
.................
.................
.................
.................
.................
.................
.................
.................
.................
.................
.................

Generation = 2, Population = 0.
.................
.................
.................
.................
.................
.................
.................
.................
.................
.................
.................
.................

*** Life<ConwayCell> 16x15 ***

Generation = 0, Population = 8.
...............
...............
...............
...............
...............
...............
....*..........
.............*.
...........*...
...............
.........*.....
...............
..*............
........*..*.*.
...............
...............

*** Life<ConwayCell> 10x14 ***

Generation = 0, Population = 5.
..............
..............
.....*.*......
..............
.....*........
..............
......*.......
..............
..............
.......*......

Generation = 2, Population = 0.
..............
..............
..............
..............
..............
..............
..............
..............
..............
..............

Generation = 4, Population = 0.
..............
..............
..............
..............
..............
..............
..............
..............
..............
..............

Generation = 6, Population = 0.
..............
..............
..............
..............
..............
..............
..............
..............
..............
..............

Generation = 8, Population = 0.
..............
..............
..............
..............
..............
..............
..............
..............
..............
..............

*** Life<ConwayCell> 20x20 ***

Generation = 0, Population = 6.
....................
....................
....................
.................*..
....................
....*...............
....................
....................
....................
....................
....................
..*.................
.......*............
....................
....................
....................
........*...........
....................
....................
...............*....

*** Life<ConwayCell> 13x12 ***

Generation = 0, Population = 18.
...........*
..*.........
.......*....
...*........
...*........
............
*..*.......*
..........*.
.*..........
..*.........
............
....*.....**
.*.*.*.....*

*** Life<ConwayCell> 6x19 ***

Generation = 0, Population = 14.
.*.............*.*.
........*....*...*.
.......*.....*....*
.*.............*..*
...................
..........*.......*

Generation = 8, Population = 0.
...................
...................
...................
...................
...................
...................

Generation = 16, Population = 0.
...................
...................
...................
...................
...................
...................

*** Life<ConwayCell> 8x17 ***

Generation = 0, Population = 8.
.............*...
..............*..
....*............
...*.........*.*.
.................
.........*.......
.................
*................

*** Life<ConwayCell> 20x13 ***

Generation = 0, Population = 18.
.............
.....*.......
..........*..
.*.*.........
.............
...**........
....*.......*
.............
......*......
.........*...
......*...*..
.............
....*........
.......*.*...
.............
*............
......*...*..
.............
.............
.............

*** Life<ConwayCell> 17x18 ***

Generation = 0, Population = 16.
..........**....*.
........*....*....
..................
..................
.*................
..................
......*...........
..................
..................
.*................
..................
...............*..
...*......*.......
....**............
............*.....
...............*..
..............*...

*** Life<ConwayCell> 13x13 ***

Generation = 0, Population = 8.
.............
.............
........*.*..
........*....
.....*.......
.............
..*..........
.............
.............
............*
.............
........*....
......*......

Generation = 10, Population = 0.
.............
.............
.............
.............
.............
.............
.............
.............
.............
.............
.............
.............
.............

*** Life<ConwayCell> 15x7 ***

Generation = 0, Population = 17.
.*.....
.......
.......
.....**
.*.....
......*
.......
.....**
*......
.......
.......
.**....
....*..
..****.
..*...*

Generation = 2, Population = 8.
.......
.......
.......
.......
.......
.......
.......
.......
.......
.......
.......
.......
...***.
.**...*
....**.

Generation = 4, Population = 7.
.......
.......
.......
.......
.......
.......
.......
.......
.......
.......
.......
....**.
..*.**.
..*...*
.......

Generation = 6, Population = 7.
.......
.......
.......
.......
.......
.......
.......
.......
.......
.......
....*..
...***.
......*
....**.
.......

*** Life<ConwayCell> 6x5 ***

Generation = 0, Population = 8.
*....
*..*.
.**..
.*...
....*
..*..

Generation = 2, Population = 6.
.....
*.*..
*..*.
*.*..
.....
.....

Generation = 4, Population = 6.
.....
.**..
*.*..
.**..
.....
.....

Generation = 6, Population = 6.
.....
.**..
*..*.
.**..
.....
.....

Generation = 8, Population = 6.
.....
.**..
*..*.
.**..
.....
.....

*** Life<ConwayCell> 16x8 ***

Generation = 0, Population = 12.
....*...
.......*
*.......
........
......*.
..*.....
...*....
....*...
.....*..
........
........
......*.
...*....
......*.
*.......
........

Generation = 2, Population = 0.
........
........
........
........
........
........
........
........
........
........
........
........
........
........
........
........

Generation = 4, Population = 0.
........
........
........
........
........
........
........
........
........
........
........
........
........
........
........
........

Generation = 6, Population = 0.
........
........
........
........
........
........
........
........
........
........
........
........
........
........
........
........

Generation = 8, Population = 0.
........
........
........
........
........
........
........
........
........
........
........
........
........
........
........
........

Generation = 10, Population = 0.
........
........
........
........
........
........
........
........
........
........
........
........
........
........
........
........

Generation = 12, Population = 0.
........
........
........
........
........
........
........
........
........
........
........
........
........
........
........
........

Generation = 14, Population = 0.
........
........
........
........
........
........
........
........
........
........
........
........
........
........
........
........

Generation = 16, Population = 0.
........
........
........
........
........
........
........
........
........
........
........
........
........
........
........
........

*** Life<ConwayCell> 8x15 ***

Generation = 0, Population = 10.
.*......*.....*
.....*.*.......
*...........*.*
...............
...............
...*...*.......
...............
...............

Generation = 10, Population = 0.
...............
...............
...............
...............
...............
...............
...............
...............

*** Life<ConwayCell> 14x9 ***

Generation = 0, Population = 8.
....*....
.........
.........
.........
.........
.........
.........
.........
.........
.*.*.....
*.*......
....*.*..
...*.....
.........

Generation = 15, Population = 0.
.........
.........
.........
.........
.........
.........
.........
.........
.........
.........
.........
.........
.........
.........

*** Life<ConwayCell> 17x11 ***

Generation = 0, Population = 16.
...........
...........
.*.........
...........
*..........
*..*.......
...........
....*......
..*........
......*..*.
...........
....*...*..
......*....
*..........
.......*.*.
...........
.......**..

Generation = 9, Population = 0.
...........
...........
...........
...........
...........
...........
...........
...........
...........
...........
...........
...........
...........
...........
...........
...........
...........

*** Life<ConwayCell> 12x14 ***

Generation = 0, Population = 18.
..........*...
.....*......*.
......*..*..**
*..........*.*
....*.........
.........*...*
..............
..........*...
.**........*..
*.............
..............
..............
