20

15 24
15
9 6
9 9
10 4
3 23
6 13
2 9
14 16
5 10
10 10
9 10
14 17
13 2
4 7
7 15
1 22
44 18

22 6
25
9 4
15 1
14 0
7 5
12 0
13 5
19 2
21 0
2 3
20 1
7 4
0 5
11 3
13 3
18 3
10 4
3 5
11 1
7 5
6 5
16 0
11 5
15 2
19 4
19 0
38 8

19 36
11
6 33
11 30
7 6
18 28
4 0
14 24
10 10
4 28
12 8
4 17
12 7
1 7

49 40
19
34 11
41 4
31 24
14 0
40 16
42 10
37 6
24 2
2 26
6 8
15 35
42 34
38 21
16 10
46 23
30 19
7 34
0 22
33 11
18 6

29 46
18
14 5
8 16
18 0
23 17
5 45
28 10
7 45
1 11
17 4
23 14
24 27
18 32
6 0
20 41
17 37
15 30
27 45
18 0
25 6

56 67
27
20 5
33 60
34 57
6 61
41 66
17 14
50 65
24 7
33 64
28 47
23 50
18 26
15 60
20 31
10 8
31 6
21 15
52 29
6 13
43 63
44 30
42 32
29 24
3 43
34 32
40 60
3 27
13 18

63 5
18
30 3
30 2
5 2
50 1
20 4
11 1
60 4
21 3
42 2
58 2
15 2
51 2
14 0
2 0
11 2
16 2
37 0
14 1
23 9

4 45
10
3 22
0 27
3 2
2 44
1 41
2 27
2 32
3 11
2 44
0 7
44 17

7 47
27
6 34
3 6
3 20
5 4
3 7
2 30
3 16
4 23
1 16
3 34
0 44
6 15
4 24
5 37
4 10
1 11
6 6
2 3
2 15
3 24
3 27
4 18
4 14
3 45
1 32
5 10
2 33
28 12

39 12
7
22 6
11 2
12 9
22 10
35 2
29 5
38 10
28 2

38 64
30
26 20
18 23
14 14
30 16
34 27
35 61
23 61
28 42
16 3
17 15
35 54
36 39
34 62
11 13
33 62
3 39
22 12
5 39
5 63
12 55
18 36
36 50
8 13
31 53
22 20
29 32
11 33
19 18
24 21
22 6
24 19

22 1
18
9 0
2 0
3 0
13 0
14 0
11 0
8 0
12 0
3 0
1 0
18 0
19 0
19 0
12 0
13 0
2 0
21 0
13 0
44 1

64 67
28
9 35
59 15
21 16
6 57
6 17
9 4
44 29
15 54
37 13
1 7
0 1
27 19
17 32
3 64
56 58
57 14
41 0
29 2
27 42
23 20
23 64
1 33
7 22
57 50
14 9
40 58
44 43
33 40
10 4

6 67
10
3 36
5 65
5 9
5 62
4 27
0 31
4 27
0 36
1 5
4 7
4 11

23 2
2
2 0
10 0
32 1

69 61
26
37 48
45 37
63 53
10 28
63 33
58 23
25 35
52 14
45 55
46 29
48 18
54 42
37 53
23 16
54 13
20 48
7 60
27 26
48 35
23 15
58 54
46 51
8 51
39 27
54 32
58 29
4 18

32 1
26
31 0
8 0
2 0
11 0
20 0
9 0
15 0
29 0
10 0
12 0
6 0
1 0
11 0
25 0
0 0
1 0
29 0
7 0
2 0
5 0
30 0
12 0
7 0
9 0
4 0
24 0
7 13

38 18
6
0 0
35 15
12 8
16 9
22 0
13 4
2 12

42 18
24
24 1
31 13
8 16
29 1
11 10
27 0
13 5
23 16
3 1
0 10
7 7
32 3
36 13
34 0
28 10
3 7
12 7
0 1
11 17
14 3
9 14
10 1
21 15
23 7
29 15

43 4
2
19 1
21 1
20 8
