25

38 39
17
37 10
2 6
5 37
34 20
30 5
17 29
37 13
3 9
8 29
30 16
17 30
19 5
30 7
3 13
1 12
33 28
12 16
9 16

19 42
28
1 24
0 41
2 37
7 41
13 34
16 30
2 38
7 23
17 38
10 30
2 2
10 13
11 41
13 23
18 38
9 30
4 13
15 40
13 18
8 0
10 16
14 37
16 2
11 6
4 2
13 41
1 14
18 3
3 20

25 2
28
16 1
21 1
3 0
18 1
19 1
11 0
0 1
9 0
3 0
21 0
5 0
13 1
15 0
21 1
18 0
4 0
3 0
10 1
11 0
9 1
0 1
18 1
5 1
24 0
1 1
4 1
22 0
23 0
15 8

39 12
28
8 9
28 2
30 0
19 9
13 11
3 4
18 0
29 7
33 9
32 11
30 6
1 7
4 6
6 9
35 0
23 0
15 6
37 6
0 11
37 8
12 4
23 4
5 10
32 1
32 10
37 4
36 3
37 0
5 8

34 25
14
28 5
21 24
12 6
9 6
3 1
24 24
20 21
2 0
17 14
25 14
26 13
25 4
0 11
27 6
7 19

43 30
16
42 1
39 4
6 24
25 29
36 12
26 16
3 5
30 8
0 8
8 23
17 19
29 3
6 12
37 3
38 10
11 3
18 3

42 49
22
0 2
1 27
30 39
18 34
6 21
7 6
1 15
9 38
20 35
28 3
39 33
25 5
10 25
41 29
12 2
12 48
2 22
26 16
7 42
24 0
8 23
0 19
4 6

4 33
8
2 3
3 4
1 3
1 0
2 19
0 23
0 18
0 7
2 16

8 1
2
7 0
1 0
3 20

40 25
26
14 14
22 5
33 8
39 18
30 17
16 18
20 17
2 9
19 9
7 5
24 6
5 18
17 21
13 0
19 13
37 4
31 6
32 6
34 18
1 8
23 13
7 20
31 5
2 2
39 0
36 14
19 20

46 15
2
33 4
13 0
16 4

1 6
30
0 4
0 1
0 3
0 2
0 0
0 4
0 4
0 3
0 1
0 1
0 3
0 3
0 1
0 5
0 1
0 4
0 2
0 3
0 0
0 4
0 2
0 3
0 3
0 0
0 0
0 3
0 5
0 4
0 4
0 1
15 1

20 37
4
0 36
9 9
7 35
4 2
5 5

14 25
1
12 10
17 15

41 5
12
3 3
37 3
14 2
40 2
12 2
22 0
36 4
30 0
39 3
19 2
14 4
8 4
7 20

39 10
29
37 5
1 0
27 5
18 1
3 4
19 1
3 8
27 8
16 9
6 9
38 5
36 6
28 4
17 0
6 3
22 5
19 8
19 3
30 2
25 6
6 9
14 3
38 2
22 9
21 9
36 0
14 2
8 1
28 3
6 14

30 25
14
19 20
15 1
6 7
22 19
22 18
25 19
11 2
22 11
27 0
19 5
25 13
4 21
23 13
17 18
6 13

20 31
13
14 1
9 19
14 0
7 17
13 18
15 0
16 1
8 30
7 5
16 7
18 21
10 30
10 25
2 13

17 19
14
7 3
7 8
11 16
3 0
12 1
5 7
12 13
8 11
12 10
10 13
1 15
13 13
15 9
2 10
18 11

3 18
8
1 6
1 15
1 2
0 17
2 10
1 12
1 17
2 7
7 9

49 6
18
19 5
6 1
12 0
29 1
31 5
10 1
4 2
39 0
18 0
2 5
35 0
4 4
15 3
43 3
25 4
17 1
5 1
40 3
15 17

33 50
30
27 46
17 44
15 46
28 34
19 10
6 39
25 31
4 20
0 9
14 0
31 38
27 23
25 10
8 14
5 10
1 49
21 25
23 8
32 26
17 31
15 10
31 8
31 34
24 19
15 17
29 20
24 46
17 31
21 11
1 41
10 12

35 19
23
31 15
12 8
1 13
33 11
30 6
3 13
5 2
2 3
26 8
32 15
17 8
24 14
12 5
31 3
16 16
26 16
2 3
12 4
10 10
18 0
27 0
11 13
12 18
20 8

32 23
16
7 9
30 20
18 2
27 3
0 4
13 17
29 6
9 1
5 22
7 13
14 11
3 3
1 20
21 21
17 6
8 16
12 20

20 34
19
4 10
13 2
1 33
16 30
16 10
16 16
8 21
8 18
12 2
17 29
11 9
5 31
7 22
2 18
17 26
8 32
3 2
19 5
11 30
8 3
