26

18 3
12
17 2
10 0
1 0
9 2
15 2
9 1
6 1
4 2
0 1
10 0
5 0
3 2
17 9

20 41
8
4 1
8 13
12 37
1 14
7 4
0 17
12 35
17 2
12 19

47 29
9
42 24
19 2
17 10
2 21
43 19
41 12
39 23
33 19
25 8
4 13

8 11
26
0 6
4 7
5 4
1 10
2 2
6 3
2 1
2 4
5 4
5 8
2 8
5 1
2 9
2 6
0 3
3 5
3 1
7 10
4 2
2 1
0 9
5 8
0 6
4 0
2 6
0 2
15 3

37 6
8
27 0
27 1
6 0
14 2
4 5
16 0
5 0
14 0
9 14

5 17
29
2 15
1 9
0 12
0 8
4 3
2 15
1 16
0 12
3 4
4 10
3 10
1 13
2 11
1 4
3 14
0 14
4 12
0 12
4 9
0 1
1 4
4 0
4 11
2 14
4 5
1 14
1 5
3 3
0 16
9 13

48 24
29
5 6
19 12
9 10
42 15
7 5
43 20
35 4
41 16
33 0
3 17
6 17
34 21
18 4
33 17
3 4
47 15
28 9
4 7
41 2
27 6
10 5
44 22
3 18
1 9
12 23
23 21
20 14
27 16
13 2
3 7

18 15
8
4 6
2 8
1 6
8 0
16 2
6 7
0 6
15 10
15 9

49 31
22
39 18
37 23
28 12
34 15
38 1
26 1
41 28
40 30
37 26
9 14
39 4
45 11
48 15
7 28
40 23
12 28
13 2
35 22
34 14
34 29
46 2
40 9
5 4

44 42
13
38 36
13 11
37 29
2 13
30 23
26 26
26 16
39 13
40 18
9 14
10 38
37 10
23 6
6 17

47 8
24
40 4
18 7
22 0
29 0
4 5
15 3
22 4
10 0
29 3
32 3
40 3
10 7
5 2
42 0
8 4
6 6
28 6
20 1
26 0
34 0
2 1
2 2
13 5
32 0
8 19

11 34
13
5 32
6 33
5 17
1 19
8 33
6 27
5 16
2 4
2 17
1 21
3 0
5 25
7 31
3 2

16 44
7
5 3
4 7
7 29
15 26
12 20
2 20
6 36
1 5

18 33
29
14 14
8 22
5 12
8 8
7 28
11 21
17 25
10 2
3 1
17 16
4 1
5 2
8 32
14 10
6 4
9 24
4 25
15 29
6 15
12 18
15 28
9 32
0 32
3 6
17 18
14 31
2 12
3 31
15 4
9 19

18 20
19
12 9
17 6
8 17
12 6
13 19
15 4
10 11
5 1
11 4
13 1
3 14
7 14
1 9
1 13
16 4
12 2
14 6
17 17
14 0
12 12

45 19
14
7 12
27 4
2 1
21 3
12 16
33 4
44 13
10 7
25 4
42 9
12 17
27 1
17 18
1 10
14 5

26 26
12
14 18
20 9
2 10
21 5
7 23
7 11
24 22
0 13
3 4
22 16
22 4
12 3
9 11

37 29
16
19 6
29 22
25 25
4 14
10 5
11 16
9 1
14 17
6 2
3 17
22 4
11 2
28 10
17 22
24 24
8 2
5 19

48 5
26
30 4
23 2
23 0
3 3
16 2
17 2
21 1
39 0
47 2
32 2
14 4
34 0
16 4
42 2
38 0
2 3
22 4
32 3
27 2
41 0
40 0
28 3
37 4
3 1
41 3
10 0
10 12

4 41
5
2 39
0 16
3 27
1 7
3 26
15 15

2 40
16
0 33
1 36
1 29
0 11
0 26
1 38
1 8
0 36
0 32
0 25
1 9
1 0
0 25
1 31
0 11
1 12
18 3

39 48
13
30 15
10 10
3 27
9 21
0 30
13 46
1 25
27 23
23 6
30 44
34 13
36 29
38 32
14 11

30 14
22
23 12
16 7
0 7
20 12
18 9
2 3
26 13
25 3
5 4
6 5
1 6
21 4
10 13
13 8
11 12
12 3
10 13
19 2
6 0
27 9
16 8
23 13
19 10

4 2
23
0 1
3 1
0 0
2 1
0 0
2 1
3 0
2 1
2 1
2 0
1 0
0 1
1 1
3 0
1 1
1 1
1 0
0 1
3 1
3 0
3 0
0 0
2 0
4 7

33 18
26
13 0
6 15
6 4
29 9
14 13
8 0
9 7
14 16
5 10
27 10
10 0
12 15
23 17
17 17
7 0
16 2
24 17
1 5
4 8
7 16
5 15
28 5
26 13
15 5
1 1
12 13
3 9

7 10
24
3 0
2 8
1 9
0 1
3 9
4 7
3 7
6 3
4 6
0 3
5 9
3 2
4 9
4 3
4 1
1 7
4 6
6 6
1 7
0 1
0 8
2 6
0 2
5 6
20 14
