25

16 9
18
13 4
3 0
9 2
2 7
4 1
10 3
10 7
3 7
6 4
6 6
4 8
3 2
10 8
7 0
0 6
15 4
12 5
9 2
57 62

2 13
15
0 3
0 4
0 2
0 2
0 5
1 1
0 9
0 4
0 8
0 10
1 1
0 0
0 12
1 9
0 10
25 50

15 8
2
10 0
6 0
2 44

12 20
30
8 0
7 11
4 2
5 4
1 0
1 3
6 19
6 7
8 0
0 3
2 0
9 3
4 19
10 17
2 6
3 4
1 6
11 18
5 17
10 13
8 13
10 9
5 9
4 4
3 14
2 0
4 0
9 8
10 6
5 13
40 7

3 16
12
1 5
2 11
1 0
2 4
2 1
0 1
0 1
0 2
2 6
0 15
2 6
2 15
67 41

16 8
5
3 1
7 2
11 0
0 1
8 1
66 29

16 12
30
2 1
7 8
10 0
1 1
12 5
9 6
3 10
3 7
3 8
6 4
13 0
8 4
0 1
15 1
14 5
6 10
8 8
1 2
11 5
3 0
1 3
13 0
5 5
15 5
15 11
11 9
4 8
5 11
3 10
3 7
13 68

16 8
21
13 7
11 2
14 3
7 6
7 6
3 5
0 1
3 1
4 5
7 2
11 7
7 6
0 4
3 0
1 1
4 7
4 6
0 1
5 1
4 5
13 6
12 65

8 15
16
6 3
1 14
1 5
6 10
6 5
4 3
7 7
0 8
0 3
0 10
6 10
7 3
4 2
2 13
3 7
0 12
77 78

20 11
5
9 8
18 0
0 5
16 0
4 6
98 27

13 4
3
9 2
2 2
4 1
56 4

15 2
6
12 0
1 1
9 1
9 0
9 0
0 0
15 79

19 15
2
6 0
6 12
32 67

15 8
17
13 1
4 3
2 1
10 7
9 5
13 5
6 1
2 2
8 2
4 4
3 7
6 0
11 3
4 4
11 0
13 5
1 4
32 10

20 11
20
4 6
16 1
8 9
0 9
0 4
17 6
12 10
13 7
14 3
10 6
9 7
10 4
6 6
4 7
16 0
7 5
4 1
1 3
3 10
4 1
14 61

9 5
9
0 2
3 2
5 0
8 0
7 2
1 0
0 1
8 4
0 4
42 18

7 5
20
4 1
0 3
0 4
0 4
4 0
6 2
3 2
6 3
3 3
6 3
2 3
0 4
6 4
1 0
4 0
1 1
2 2
6 3
2 3
1 1
66 52

2 11
29
1 8
0 0
0 3
0 9
1 6
1 9
1 5
0 0
0 1
1 9
0 10
1 4
1 8
0 4
0 7
1 2
0 9
0 5
0 2
0 0
1 4
1 10
0 0
0 8
1 1
0 9
0 0
1 3
0 9
41 22

1 12
4
0 1
0 4
0 2
0 1
22 76

15 6
9
14 3
12 4
3 2
13 2
6 0
2 0
9 3
1 2
8 0
54 5

19 14
30
3 2
17 11
8 8
8 1
11 7
14 3
0 1
15 9
11 5
16 13
6 13
12 9
16 10
16 8
10 12
15 4
0 5
16 12
4 8
5 4
11 1
3 0
2 1
4 3
9 3
8 10
7 1
4 3
14 13
15 8
81 16

15 9
6
13 1
7 6
1 6
14 7
2 6
13 0
41 73

14 17
28
1 6
10 0
2 9
10 14
10 2
5 11
1 9
10 0
3 0
0 7
1 12
11 15
3 14
0 16
8 5
10 11
1 5
6 11
3 11
7 1
5 1
1 16
2 6
3 16
2 16
11 11
13 8
3 5
49 42

2 7
21
1 5
0 2
1 1
0 3
1 2
0 4
1 3
1 3
1 1
0 2
0 4
0 0
0 5
1 6
1 5
0 0
1 6
1 1
1 1
1 1
1 2
96 3

12 6
14
6 2
10 3
11 5
6 0
8 0
1 0
7 3
5 3
4 3
2 0
6 1
1 1
6 5
1 1
67 48
