29

11 13
26
1 8
3 5
5 6
3 3
0 8
2 4
1 4
10 6
0 10
10 10
0 2
5 9
10 4
1 11
1 2
10 12
3 10
2 9
3 10
7 11
8 1
1 0
2 7
9 0
7 0
0 2
12 12

14 9
2
1 4
6 5
17 58

1 17
15
0 11
0 1
0 3
0 13
0 16
0 16
0 7
0 6
0 2
0 12
0 6
0 6
0 3
0 14
0 5
70 13

18 16
21
4 5
3 14
1 8
17 6
7 11
3 13
9 11
0 12
8 12
0 6
12 10
4 8
2 13
12 1
10 5
4 3
6 14
2 12
6 11
14 1
4 0
78 1

9 13
13
0 10
8 0
1 10
5 11
0 12
6 8
1 7
8 0
8 8
6 8
3 1
4 10
4 0
63 48

19 7
19
7 3
5 2
17 6
18 0
12 0
10 6
16 5
3 6
5 4
3 0
15 2
8 4
6 0
6 4
12 3
18 1
11 4
9 0
9 6
46 12

1 15
6
0 3
0 14
0 9
0 11
0 13
0 1
57 47

1 14
2
0 0
0 11
100 18

14 7
26
0 3
2 2
8 5
2 6
11 0
7 4
3 5
8 4
0 1
1 5
6 3
3 0
2 0
11 5
4 6
1 6
13 4
10 3
13 5
7 1
5 0
7 3
4 4
5 0
7 2
6 4
34 10

20 1
15
9 0
3 0
17 0
2 0
10 0
4 0
11 0
14 0
16 0
19 0
14 0
10 0
8 0
19 0
2 0
70 67

9 5
25
7 3
1 3
3 4
4 2
3 2
6 3
3 4
6 1
5 2
0 0
7 4
0 4
4 3
5 0
6 2
8 2
1 4
1 0
6 1
5 3
8 2
7 0
3 4
2 0
6 4
99 16

3 13
23
1 1
2 0
1 10
2 1
2 2
0 2
1 2
0 5
1 5
2 0
0 12
0 4
1 12
0 2
2 2
2 9
0 1
1 0
2 0
2 4
2 0
0 2
1 4
24 36

5 16
1
1 2
32 48

10 7
26
8 5
6 3
7 6
6 0
2 6
7 2
1 6
1 5
5 4
2 5
7 2
8 3
1 2
3 0
8 6
9 1
2 2
1 6
5 3
4 2
9 4
5 0
0 0
0 3
2 6
1 4
65 41

2 8
21
1 3
0 0
0 0
0 3
1 7
1 4
1 4
1 6
1 6
0 4
0 6
1 4
1 5
0 3
1 3
1 3
0 7
0 3
0 0
0 1
1 1
5 22

14 15
14
4 10
10 9
4 12
7 3
4 7
5 7
5 2
13 0
2 13
9 3
3 8
13 7
13 6
3 1
40 21

4 1
19
2 0
3 0
3 0
1 0
0 0
1 0
0 0
0 0
2 0
0 0
3 0
2 0
1 0
0 0
3 0
2 0
1 0
0 0
0 0
70 60

5 9
17
2 3
3 3
2 1
1 8
1 5
0 7
3 2
2 0
0 5
1 0
1 4
4 7
3 0
4 8
1 7
1 4
3 1
83 73

16 18
9
5 14
0 7
7 16
1 15
7 12
3 15
1 2
3 15
7 8
12 54

17 17
1
7 15
82 78

15 11
1
8 4
20 39

13 5
4
10 1
10 3
10 3
10 1
86 2

2 11
29
0 1
1 6
0 2
1 6
0 9
1 2
1 4
0 7
0 8
1 5
0 1
1 2
0 9
1 4
0 7
1 2
1 2
1 2
0 8
0 8
0 5
0 10
0 3
1 3
1 7
1 4
1 9
0 3
1 2
36 40

20 6
22
4 1
6 4
3 5
14 4
0 3
12 3
10 5
17 1
12 3
6 3
16 2
12 4
7 0
18 2
5 4
18 2
0 1
19 1
12 2
6 1
17 5
9 3
2 56

3 13
11
1 1
1 1
1 8
0 2
0 6
2 5
0 9
2 2
1 12
1 10
1 9
54 51

18 8
3
16 2
4 2
5 2
92 76

1 16
19
0 1
0 8
0 0
0 8
0 14
0 11
0 2
0 15
0 6
0 5
0 8
0 14
0 6
0 0
0 15
0 0
0 11
0 6
0 14
64 61

14 18
4
1 4
12 0
6 6
0 1
55 60

10 18
28
2 14
8 17
4 12
1 13
6 17
8 14
9 5
5 3
9 12
1 2
7 1
4 12
7 11
4 3
9 14
5 5
0 6
8 11
9 13
5 8
9 2
7 5
3 1
0 4
8 10
5 15
5 11
1 2
10 64
