20

8 20
1
2 17
9 6

1 6
3
0 1
0 4
0 5
15 15

9 11
4
5 10
0 10
6 5
6 0
15 9

18 14
8
3 6
0 12
8 3
14 1
10 8
8 10
16 8
11 6
9 15

8 16
6
6 5
6 10
4 14
3 15
1 1
3 6
2 18

19 1
10
12 0
12 0
0 0
3 0
6 0
11 0
5 0
12 0
2 0
8 0
18 4

1 13
8
0 6
0 8
0 10
0 6
0 4
0 9
0 10
0 5
1 15

18 10
4
13 8
9 7
2 6
4 5
20 20

19 9
6
17 0
6 3
7 3
13 5
15 8
16 7
11 14

16 4
1
1 0
15 8

11 3
9
9 1
2 2
7 1
7 0
10 0
6 2
5 1
1 0
2 2
20 15

18 20
9
10 11
3 16
0 0
6 11
3 4
13 7
14 12
5 4
17 15
13 16

17 12
1
8 5
18 18

20 20
4
13 6
0 6
10 15
5 6
12 20

14 13
7
5 11
0 11
0 1
11 2
0 12
5 9
3 12
13 18

10 8
10
3 7
0 1
1 3
7 0
6 3
1 6
5 3
8 3
2 7
7 7
11 18

20 4
5
8 2
3 3
2 2
6 0
9 3
6 11

19 16
9
17 11
0 12
7 2
18 5
6 9
12 4
16 15
12 11
2 13
2 12

12 5
3
3 1
9 1
11 3
15 10

2 3
5
1 1
0 2
1 1
1 0
1 2
4 17
