*** Life<FredkinCell> 6x9 ***

Generation = 0, Population = 6.
------00-
---------
---0-----
--0------
0--------
0--------

Generation = 15, Population = 34.
5125--2-4
6-30103-3
4100----1
2-0--0-03
324-2-35-
--10302--

*** Life<FredkinCell> 7x20 ***

Generation = 0, Population = 19.
------000-----0-----
------0-0---0-0-----
--00--------------0-
------0--------0---0
--------0--------0--
---------0--------00
--------------------

Generation = 10, Population = 62.
---0--3-1--3626021--
1-1-4-634--131---04-
323--1------104-3-1-
312-211---2-1----021
4-121--1-----2---10-
0--1---131----3-04-5
1--------0-----21---

Generation = 20, Population = 55.
-241--60--3-+4--4---
---3--------7--4----
--5-----------9-----
-3--32-1-7--364---+-
4155-4260--13---131-
--36--233--31--23-36
-55----5---22---1-51

Generation = 30, Population = 67.
63-2-5-4--6----57-+-
-1--+----2+-+-8--39-
77-644--445-3++1--8-
5-547-358-+5--58---6
---5-766--1---8-242-
--4-42-----74-+5-948
-----1--2-2-2-----64

*** Life<FredkinCell> 29x27 ***

Generation = 0, Population = 21.
---------------------------
--------------0---0--------
---------------------------
----------0----------------
---------------------------
---------0---0-------------
-----------0---------------
---0-----------------------
---------------------------
------------0--------------
---------------------------
-------------0-------------
---------------------------
---------------------------
---------0-----------------
---0---------0-------------
------------------------0--
---------------------------
---------------------------
------------------0--------
---------------------------
--0-----------------------0
-----------0---------------
----------------------0----
---------------------------
---------------------------
----------------------0----
--------------0------------
-0-------------------------

Generation = 19, Population = 415.
--0---0-----03-------0-----
-2-0---1---15-3-------0---0
02---10-0-0302-00------0-0-
4-2-4221-70-343141------0--
-0-20102-----0000-01--2-0--
--33236-0-42--41-36334---1-
--010-060-0507---501120----
-2-4-3-----4-1--1-1042-2-0-
0103---30-040--2-0-21-50-02
2---231-4-621-841-4--25---4
-2--0--201-201-01-0--11-2--
-35-23-12+21645----22------
0-02--0-0200031-0-1120--4--
---1-2-2214-512---4310-0-0-
0-01--041-02---130-11-4-0--
--2-0402---2-4-2-31---23-1-
05-00310--20--303-----4-3-3
1-23-00-22-3--602-3--130-24
00--0--11-031--0--1411-0102
---4-3-0-34-65-3-0----4----
--020-0003---3-2----0------
-051311-3----10-10-0-1-----
-20702-102---4-30-1-1-4-3--
0-224--2125-311-41-1-0--30-
02----21030--0-0-02-0--1401
-0-210311-----1-3240--20401
-102--0012---1-1-3-0-130305
3-30---00--1-11-1-50-060103
000---11--0---4241--0-50-02

*** Life<FredkinCell> 20x27 ***

Generation = 0, Population = 20.
---------------------------
----------------------0----
---------------------------
---0-----------------------
0-----------------0--------
-------------------------0-
-------0---------------0---
---------0-----------------
0----0-------0-------------
----0----------------------
---------------------------
----------00-----------0---
---------------------------
---------------------------
-------------------------0-
----0----------------------
-0-------------------------
--0------------------------
---------------------------
-------------------------0-

Generation = 15, Population = 271.
00--10--41132--1315-1-2-231
2-0020324---0042--4-----236
12--451---2-----2-522-51-2-
-0---2--21-0110-----2-1120-
-01--2-441-0--222-202----34
1--173-12--4--1---1-2735--0
---20----2320-2-1143---1183
--4--2-4-2-402140-13-4-1---
-22--1----0-0-1--2-----3--2
21-0420--5-221--3--3--4-0--
1-1021110--022-2--4--2-1--1
-102126-1-1-5----13-4-4----
-251-0--4--01---12---3-----
2-2-31-101-1-1-11----------
-1000--1210-0--1-----213---
-02---0-2-72-002----13-20--
2----0-0030104--1--0--0-01-
3-1-02023-57------1----3-40
3---21-1----03--012---0-0-0
1010--3---4-40131--1-1---30

*** Life<FredkinCell> 17x15 ***

Generation = 0, Population = 20.
0-------0------
---------0-0---
-----------00--
---0--------0--
-------0-------
0--------------
---------------
---------------
-----0-----0---
-----------0---
-0-----0-------
---------------
-----------00--
--0-------0----
---------------
-------0-------
---------------

*** Life<FredkinCell> 16x9 ***

Generation = 0, Population = 5.
---------
---------
---------
----0----
---------
--0------
------0--
---------
---------
---------
---------
---------
---------
---------
-0-------
-------0-

Generation = 6, Population = 36.
------0--
----0---0
----0---1
--------0
--0---2-1
--1------
1---1-1-0
0--------
-01---0-0
0------0-
---00---0
--0--0-0-
-0---00--
---0-1---
---1---0-
-0-1-----

Generation = 12, Population = 53.
--1-----0
0-0-2-1-2
00--2-2--
--1---41-
------2--
0-2-5-112
5-2-30--0
--00--12-
---------
--000--01
0---1-1--
0--1---21
---------
0--4--11-
--0--33-2
--1-1--1-

Generation = 18, Population = 42.
---0-----
1----0--4
-1-1-----
--1----53
-22-----3
--4-6----
7---4---2
1-1---4--
--3-0-3--
0-1------
----4-3-0
1-----1--
-0---31--
---60-12-
-------4-
-2-52--2-

Generation = 24, Population = 44.
--5--21-1
1-21--7--
-----12--
----2-8--
-4-------
1-----333
+-4-61--2
---4---4-
11--1----
---33---3
2---51---
3-3---3--
---------
1---2----
-12---4-5
--4----5-

*** Life<FredkinCell> 13x28 ***

Generation = 0, Population = 23.
---------0------------------
------------------0---------
-----0----------------------
------0--------------------0
---------------0------------
------------------------0---
-------------0-------------0
--0----0--0-----------0-----
0-----------0---------------
----------0----00-----------
-----------------------0----
--------------------------0-
----0------0------0---------

*** Life<FredkinCell> 12x14 ***

Generation = 0, Population = 8.
--------------
--------------
-0----0-------
-------------0
------------0-
--------------
--------------
--0-----------
-0---0--------
--------------
--------------
-------0------

Generation = 16, Population = 27.
-5---2--------
--2----2------
------3-3--2-2
-0-----0------
3-8---------4-
-------------1
-----04-------
--0-------1-1-
-------2-2-3-2
--------------
------------2-
-----2-0-----0

*** Life<FredkinCell> 29x11 ***

Generation = 0, Population = 18.
-----------
-----------
---0-------
-----------
-----0-----
-----00--0-
-----------
-----0-----
----------0
-----------
-0---------
-----------
-----------
-0---------
-------0---
--0-----0--
----0-0----
---------0-
-----------
-----------
-----------
---------0-
-----------
----0------
-----------
-----------
-----------
------0----
-----------

Generation = 19, Population = 154.
-01------40
-2-6-------
-50-26--053
2-11-4-24--
---2---3-43
7-627---6-+
---12-3----
2--5--85-53
2146-553132
---2-8-26--
--42--2-27-
-33-21-----
--241---1--
4---4---404
-43-0-30-64
-+1-5-7257-
--6-5--+---
5--00--4305
---1-5----3
1-525-015-1
---0--1---2
-122-32---1
000--5-0---
2--2-3--4-5
223-205-40-
--001--431-
00---022221
--10-----7-
0--0---4-10

*** Life<FredkinCell> 16x9 ***

Generation = 0, Population = 23.
-----0--0
00-0-----
--000----
-0-------
---------
--0------
0--------
-0-00----
---0-----
----0----
---------
----0---0
--------0
--------0
---0-----
----0---0

*** Life<FredkinCell> 20x29 ***

Generation = 0, Population = 12.
-----------------------------
--------------------0--------
-----------------------------
-----------------------------
----------------0------------
-0--------------------00-----
-----------------------------
---------------0-------------
-------------------0--0------
-----------------------------
-----------------------------
-----------------------------
-----------------------------
-----------------------------
0----------------------------
----------------------0------
-----------------------------
-----------------------------
-------------------0---------
-----------------------0-----

*** Life<FredkinCell> 11x23 ***

Generation = 0, Population = 24.
---------------------0-
---0----------0--------
--00-------------0----0
----00-0------0--------
------00---------------
-----------------------
---------------0-------
--0--------------------
-----------0-----------
----0---0--------0---0-
-------0----0--0-0-----

*** Life<FredkinCell> 23x28 ***

Generation = 0, Population = 15.
----------------------------
----------------------------
--------------0-------------
----------------------------
----0-----------------------
----------------------------
----------------------------
---------------0------------
----------------------------
---------------------------0
------0---------------------
--------------------------0-
----------------0-----------
----------0-------0---------
------0---------------------
----------------------------
----------------------------
---------0-----------0------
----------0-----------------
----------------------------
-0--------------------------
---------------------------0
----------------------------

Generation = 5, Population = 177.
---0-0-------0-0------------
----0-----0---0---0---------
---------0-0---0-0-0--------
0-------0-0---0-0-0---------
-0-----0-0-----0-----------0
0-----0-0-----0-----------0-
-----0-0---0-0-0---0------00
----0-0---0-0-0-0-0-0----0-0
---0-0----00---0-000---0-00-
--0-0-0--010----00-0--0---1-
-0-0-0-0-020---0--0---00-00-
--0---0---0-0-0-0---00-0-0-1
------0--0-0-0-0---0------00
--0--0101-0-0--------210--0-
-0-0-010-0-----------00---00
-00---0---------0--------0-0
0-0--0----1--0-0--0------000
-0--0-0--0-00----120----0---
-----0----0----0-00------0-0
-0---0--------0-------------
0-0-0-0--0-----------0-0-0-0
-----0--0-----------0-------
0-0--------0---------0-0-0-0

Generation = 10, Population = 147.
----0-----------------0-----
-------------------------010
------0-----0-0-0---0---0---
----------0-------0-----0--1
0-----0---1-0---0-1---0-----
-------00---1---1---0--0--1-
--0-0---0---0-0-0-----------
-----0----1-------10-0---2--
0-----0---2-----------------
-----------2-----01--011----
010-0-------0-----------0---
--0------13-----0-11----1-12
--01----------0-------1---1-
1---1---3---0--02-0-0-2-12-3
231-0---2---0---1-------0---
-00-------1-------0-------0-
012---1-------0---2---------
---1-------2---0---2-----121
1--1-3--000---------0-------
-1-------21--0---120----0--1
-000----1--10-0-------------
-------11--10---11--10----0-
----011-011-----0-----------

Generation = 15, Population = 339.
--------1--000-00--0101---10
------01-000-0-02010--10-232
-----0000-0-00--1-4--0-0-02-
0---012000-00-0--02-2-44--3-
-0-000102030-0-0-0---00-0--0
-0-120-1111-1-0--1--12-2-2--
11--0-0-10-0-0--10200-0-0-00
0-2-00-0--2-0--123---2-4-454
22---00----0--0-1--0--0-0-1-
-0----0------1-11-2-1--4-22-
-13---10----0020---0-0--20--
122000-0---022------1---2---
222--1212--02-20-------01---
61-----242---1-22---0-3125--
--1-30--4-10--0-30-0-0-020--
2---031--2110--0-3--0---1-0-
-420-230-03110--005-----00-0
-3-21--2--02110-03331--0-42-
302-0--11-10121--0-0001-000-
0220-21-0--00001033-2-300221
-121021123--313--00010--00-0
--0022--212------44-21----22
---03----22-1-0-2--0--0-0-00

*** Life<FredkinCell> 12x19 ***

Generation = 0, Population = 22.
-------------------
------0----0-------
----------0--------
--------------0----
--0----------------
---0---------0-----
-------------------
-------------------
-00--------00--00--
--0------------0---
----0-0--------0---
------0---00------0

*** Life<FredkinCell> 22x6 ***

Generation = 0, Population = 18.
---0--
--00--
-0----
0---0-
------
0-----
0-----
-0-0--
--0---
0-----
------
------
--00--
-0----
------
------
----0-
------
-0----
-----0
------
------

*** Life<FredkinCell> 7x14 ***

Generation = 0, Population = 23.
-----00-----0-
000-------0---
--0------00--0
----0---------
0-0----0-00---
--0-0----0----
--00----0-----

Generation = 7, Population = 49.
1221-4223--136
-0-220---221--
-0--31002----1
3---2--01-2-0-
--433-------0-
1---3112--3-2-
----3--20120-1

*** Life<FredkinCell> 30x16 ***

Generation = 0, Population = 24.
----------------
--------0--0----
0--------------0
-----0----------
---------0------
--0----------0--
-00-------------
-----0----------
0-----------0---
-----0----------
----------------
----------------
------------0---
----------------
-------------0--
------0---------
----------------
---------------0
----------------
----------------
--0-------------
-------0--------
----------------
----0-----------
----------------
----------0-0---
----------------
---------0------
----------------
----------------

Generation = 13, Population = 259.
---03114-200-0--
-236-136-43-12--
23-3-230-30--300
234224-1-0-323--
--41-431-1-02-3-
4-5-----4--4-127
1-22--0-0-00-3-3
-3-106102--0-70-
131--1---6312--3
1441---03----2--
-3--000--2--030-
1--2-632-2--0-11
-----32-1-1-----
-2--0631-1--2-1-
--40-21---0-220-
5-3-----1-11-3-2
5---110-22-----1
1-431---1-434-21
--1--11000131300
-03--041-----2-1
1-----4---1-4---
-1--332-0-51424-
10--1010-2-010--
1--110--6--03013
1-3-1--00-20210-
--10---232-4--63
-03---0-0-0--100
-3--22032132-342
1--------00-00--
--4-32132--102-0

*** Life<FredkinCell> 8x12 ***

Generation = 0, Population = 22.
---0---0--0-
-0-0-0--0000
--------0---
---0--------
0---0-0--0-0
--0--------0
--0----0----
----------0-

Generation = 6, Population = 56.
-20-------40
042--2-120--
000-2-122-21
1-2-01-02---
-0-0200102-4
53-32---3-2-
3123115--10-
--1----01141

Generation = 12, Population = 54.
-41---0-32--
25--23---33-
--43-1-4-234
3042-2--4240
------043516
--2750-253-6
4-4-53643--2
32-2----25--

Generation = 18, Population = 37.
----------85
----6-+2--4-
324---4-+-54
61---61-4---
7-52---8-5--
69------63--
63--7-6-4---
545-----26--

Generation = 24, Population = 47.
----3--3---9
---563+5--7-
53-4--6++---
71-53--4--6-
7-64-----857
8---81-595-+
+-58-56--6--
-7---482279-

*** Life<FredkinCell> 25x26 ***

Generation = 0, Population = 27.
-0------------00----------
------0-------------------
--------------------------
--------------------------
-----0--------------------
-----------0--------------
--------------------------
--------------------------
--------------------------
------0-------------------
-----0--------------------
--------------------------
--------------------------
--------------------------
--------------0-----------
0------------0----------0-
--0-0-------0-----0-------
---0--0-------------------
------------0-------------
-------------0------0-----
--------------------------
-------0------------------
----------------0---------
-----000------------------
------------------0-------

Generation = 10, Population = 195.
---01-231--2--------123210
0-0-0---02--32--0---------
-0---010-0---2--------00--
0--0-------1--0----0------
-0-1-------0--------------
00--12--0----2---1---0--0-
--110-------0-21-00-------
--1---0----1--01---0--0---
1-311-0---0---02-1--0-----
-10--0------1---0---0---0-
-12211----022-----0-------
1--1---0------10--0---0---
-2-0--21----01--0-----0---
-----2-11-------1----0----
--2-12--2---0-0---------0-
1--1-0-2-10--------1--20--
2----14---2---1-----------
022-121--0---1------1---1-
---0--11----1---------0---
1--113452012---0---1--11--
----00--0-----------1---1-
-0---042-0--0-01-1--10----
--2-1-0-----1-----1---0---
---3---3---314--103-------
0-----0---0-1-1-0-1-1---1-

Generation = 20, Population = 210.
--2-518---2-624-2-----5--3
--1-3---0-0-7-----0---2--1
0-0-0---2---356--20--36---
-----132-0------00------1-
243-02---3--3-6------14--0
--2---45--2----------0-4--
-----2---3--------1-01----
-021-363-011-1------1-----
-----3---1----2-1----41---
---34--2----4--0--1------1
0----4---3---1-105-------0
--11-3453503112-0---2--1--
-3--------2-2-11--0-----0-
--1-------02-------1------
-56------1203------1-1--0-
2-----48131--3--32122--1-0
-2----5---51------213-----
----3-2----21-----1-------
22-------------24-------2-
5-2-44-97----33-24-4224-11
--2--2---3----20----2---4-
-------42------3------3--2
-----1------2---1---------
44-4-7-539-72---3085-62-5-
-1---11--1----------3-1---

*** Life<FredkinCell> 27x15 ***

Generation = 0, Population = 26.
--------0--0---
--------------0
--0---------0--
---------0-----
-0-------------
0-0------------
-----------0---
---0-------0---
-----------0---
0--------------
------------0--
---0-----------
---------------
---------------
---------------
-----------0---
---------------
-------------0-
---------------
---------------
-------------00
-----0---------
-----0---------
---------------
--0------------
---------0---0-
-------0-------

Generation = 7, Population = 219.
0-0102--1--0---
2-42-100-1213-3
3-0-0-02-0-12--
3221-3---12-121
-12-0--00011-02
--32-210--02---
---0-00-2-0-01-
-------10-01001
---2-1-1---3101
--00---20---00-
-10-00---2---21
1200-000----0-0
000-0--01----21
---0----00----0
-00--0---01---0
110-010---0--00
00--0200--0100-
--00-10100-1---
--110201-210---
-1-0-3000------
1-0-1-002-41---
-1-2--0-00010--
-23--222-12110-
02--02000-000-0
1--1201520---1-
0-00--010002---
023----10--100-

*** Life<FredkinCell> 12x13 ***

Generation = 0, Population = 26.
-------0----0
0-0-000------
----0--0-0---
-----00--0---
-------------
-------------
-0--0-----0--
0-0---0------
-------------
-00---------0
-0---0-------
-------0-0---

Generation = 19, Population = 65.
---5---7445--
85--2872-63--
-9-86--5----9
65-2-98---4--
-5---86-323--
39------24445
----3----45--
75-3-9----525
--1402--5----
--8----2-+---
-4-2--27-----
-6324------95

*** Life<FredkinCell> 24x21 ***

Generation = 0, Population = 8.
---------------------
---------------------
---------------------
---------------------
---------------------
---------------------
---------------------
---------------------
---------------------
-----------------0---
---------------------
-------------0-------
---0-----------------
-------0-------------
---------------0-----
---------------0-----
----------------0----
---------------------
---------------------
-----0---------------
---------------------
---------------------
---------------------
---------------------

Generation = 7, Population = 192.
---------------------
---------------------
-----------------0---
----------------0-0--
-------------0-0-0-0-
---0--------0---0-0-0
--0-0--0---0-----0-0-
-0-0-00-0-0----1--0--
0-0-0100------010----
-0-00100--0--100-10--
--01000-0--0020-2-00-
--0100-0-0-0-0-5-0-10
-0-00-0-0--2001-1-1-0
0-01-1-0--03-102-2-00
-00-0-0--10-2-0-3-01-
-0-0-0-001-1-302-101-
010-0-0---1-002100111
0100-0-----10103-0-10
-0010------0110-2-0--
--010-----0-01-1-1--0
-0-0-0---0-0--1-0--0-
0-0-0-0-0-0----1--0--
-0-0---0-0-------0---
--0-----0-------0----

Generation = 14, Population = 165.
-0-0-0---------0-----
-----0-----0---1-0-0-
---0---1-----1--10---
---0-----0-----4---0-
-----1---0-1--00--00-
-0---1-1-------2-0-1-
-------0-1-011--21--1
---0-0-0-----2---0---
-------1-011-013--0-0
---0-1---0-2---3-2---
-----1--10-102-13-1-1
-------3---0-0-5---4-
---1--02--04-12-302-0
-0-2-----0---2---3---
-1--11--22-03-144-3-2
-0-3---2---2-3-4---6-
--00--11-021212-0-2-3
---------0---1-5-1---
----00-110-0121---1-1
-1-3-------0-----1---
-----210-001----0---0
-2-3-1-1-0-------1-1-
-------101--------1--
---0-----0---1-3---2-

*** Life<FredkinCell> 11x10 ***

Generation = 0, Population = 14.
0-------0-
----------
----------
----0-----
--0-0----0
---0--0---
----------
-----0----
----0----0
---0------
------0--0

Generation = 11, Population = 52.
--0--0423-
----2--00-
1--1------
-0--2--0--
-33-4--30-
3-21-42---
-0-0--3232
-1--21-4--
11-1--4340
010-24--24
11-15--4--

*** Life<FredkinCell> 25x29 ***

Generation = 0, Population = 28.
----0------------------------
----------------0------------
-----------------------------
-----------------------------
----0-------0--0-------------
-----------------------------
-----------------------------
---------0-------------------
-----------------------0-----
--------------0-0-----0------
---------------------------0-
----------0---0----0-------0-
---------------0-------------
-------------0-----0---------
---------0------0------------
-----------------------------
-----0-----------------------
-----------------------------
--------------0----0---------
--------------------------0--
-----------------------------
-----------------------------
-----------0-----------------
----------------------0------
------0--------------0-------

Generation = 13, Population = 375.
---0002--00--132-00-10----0-0
---0201-21---1201-1--0-0---1-
-0--100----22--3-1-21-0-0--3-
--00--10-----25--32----01-040
--1---40-22143--1-2-0-1-11-30
0-00-010--102-----24310------
--002-00--00--3-10101---0----
0--1--11--2------0--13-101-1-
11122-11111-2-2-0---20-3---5-
011--10-------603---4-2-30253
-2001-0-142-1020-222020511-60
--2----20-------0-3-0---21-6-
-311--302-0-1-0-52001-09-002-
--00-1-3-2161---2-0-11-2-1-5-
01-03--3-3---14-1311--4300--1
-0100111---2-----0--1--24--01
01--310--2---11----4-1032-030
--00-10-00--12310--5-12000--1
0---01-2---4-0--6-4-22-04--0-
0--0--20--20-242--2----001--0
110-22311---0-0--1----120--0-
-0---00-0-1-011--33301-10----
-1----2-200213-3-22---1-0--0-
00000--0-0--1--0300--00---0-0
02--20--0---1--133-20-0-0--0-
