25

22 16
6
18 13
3 15
3 1
8 4
11 14
9 14
22 11

20 29
23
14 9
0 23
2 14
0 28
8 18
9 12
11 22
10 23
2 9
2 26
1 12
10 28
12 8
6 27
7 10
1 11
19 10
18 13
0 15
4 0
8 2
13 1
17 5
10 8

15 29
16
2 10
6 9
3 3
9 5
1 7
12 17
2 0
6 25
12 3
14 26
0 24
11 9
6 5
8 21
1 15
7 26
30 20

10 19
9
3 4
9 12
4 15
5 13
7 2
5 7
4 6
6 13
5 4
5 26

14 14
20
8 8
13 11
9 1
0 8
4 5
9 9
3 10
2 9
8 11
8 5
5 7
2 2
13 10
7 6
2 4
11 5
9 0
4 9
10 12
7 7
24 19

7 23
23
5 9
1 7
2 7
0 14
3 1
6 19
1 8
1 3
2 17
2 0
6 20
3 1
2 15
3 14
4 8
3 22
3 3
5 12
6 9
2 5
5 0
2 22
6 20
28 12

21 19
19
14 15
0 5
16 15
7 7
19 11
14 2
20 11
0 16
12 14
7 0
2 0
6 13
13 7
20 16
8 11
18 3
11 11
17 15
11 16
17 6

28 10
29
15 2
18 7
15 0
18 8
12 7
3 0
9 6
13 4
6 9
22 8
1 8
24 4
22 6
13 3
25 3
12 4
15 4
20 4
14 1
12 8
19 2
11 0
0 5
25 3
16 9
15 9
5 5
14 1
12 6
19 10

6 30
17
4 18
2 25
4 13
2 13
2 20
0 12
0 1
4 24
5 1
5 6
4 13
1 13
0 12
0 18
0 26
4 6
4 14
18 27

26 26
25
6 13
17 12
8 19
24 3
24 2
0 11
4 8
1 0
4 15
19 21
4 8
2 6
5 7
17 23
12 7
25 17
8 4
7 10
12 13
11 14
0 24
13 2
16 25
17 6
20 18
17 15

28 8
8
19 2
14 2
14 3
3 5
3 1
21 6
13 0
11 6
27 9

16 6
17
15 5
14 5
0 3
11 0
1 2
7 4
14 0
4 4
0 5
7 0
0 3
12 2
7 0
10 1
0 0
14 3
11 4
18 12

5 23
20
3 2
4 7
3 1
0 1
3 20
0 20
0 4
1 12
0 13
1 3
3 4
4 16
3 7
1 8
4 2
2 14
0 20
2 15
1 8
1 3
29 23

5 21
16
0 10
0 4
2 18
1 9
3 11
3 7
0 13
2 18
4 6
3 16
0 15
2 16
4 19
3 0
3 7
2 10
19 14

17 24
29
10 8
2 7
10 8
10 16
16 14
4 7
11 10
1 0
13 14
6 19
0 1
11 18
0 15
12 0
14 19
14 13
5 19
16 21
5 12
5 17
2 12
15 13
14 19
3 16
7 4
5 2
1 12
1 22
5 9
20 30

28 30
28
5 19
0 10
12 14
4 3
22 0
24 4
10 21
26 1
26 15
16 15
15 9
23 11
22 2
11 0
3 19
14 27
1 3
14 10
22 9
12 11
11 26
5 17
9 20
12 25
25 19
27 8
1 6
20 9
23 30

5 16
18
2 0
3 5
2 13
2 13
2 5
0 0
1 1
1 15
4 11
1 12
3 8
0 14
1 8
1 4
4 13
1 6
2 11
4 5
27 30

15 23
23
7 14
11 16
1 8
3 13
4 15
9 3
13 11
1 4
5 11
8 7
2 21
2 7
3 15
3 4
14 13
1 6
1 3
6 11
3 20
5 16
5 22
4 21
3 6
21 6

6 28
5
3 16
1 6
4 6
2 5
3 11
18 9

5 7
20
1 0
1 2
2 0
3 4
0 0
4 0
0 6
0 6
2 4
2 6
2 4
3 2
1 0
4 4
1 5
3 2
4 2
4 6
4 1
3 4
5 16

30 14
12
28 0
16 11
7 10
23 11
12 1
8 4
22 0
10 1
15 11
15 0
17 13
5 8
7 17

24 14
20
22 12
7 2
11 0
21 1
23 4
15 5
3 2
22 5
19 7
13 9
16 0
12 5
17 3
20 5
11 2
23 4
0 2
13 5
11 12
5 6
19 9

28 30
5
11 2
25 24
5 3
24 2
15 25
28 18

13 28
30
9 20
3 2
0 8
9 13
0 9
12 16
6 22
3 19
2 14
3 13
2 6
9 3
6 19
1 17
8 18
7 2
10 0
11 13
4 16
10 21
8 27
3 17
3 8
12 6
6 2
2 13
5 1
5 27
0 1
7 16
26 5

30 14
17
17 0
15 8
12 10
4 10
27 6
5 10
7 7
19 5
13 3
18 7
18 13
5 6
16 7
22 5
0 10
29 4
19 8
30 10
